<svg width="15" height="14" viewBox="0 0 15 14" fill="none" xmlns="http://www.w3.org/2000/svg">
<path d="M13.4238 5.9375C13.1113 5.625 12.6426 5.65625 12.3301 5.9375L8.76758 9.71875L8.76758 0.75C8.76758 0.3125 8.42383 0 8.01758 0L7.01758 0C6.58008 0 6.26758 0.3125 6.26758 0.75L6.26758 9.71875L2.67383 5.9375C2.36133 5.65625 1.89258 5.65625 1.58008 5.9375L0.892578 6.625C0.611328 6.9375 0.611328 7.40625 0.892578 7.6875L6.98633 13.7812C7.26758 14.0625 7.73633 14.0625 8.04883 13.7812L14.1113 7.6875C14.3926 7.40625 14.3926 6.9375 14.1113 6.625L13.4238 5.9375Z" fill="#183B56"/>
</svg>
