<svg width="1440" height="416" viewBox="0 0 1440 416" fill="none" xmlns="http://www.w3.org/2000/svg">
<path opacity="0.796642" fill-rule="evenodd" clip-rule="evenodd" d="M0 0.150826L1441 0V208.037C1441 294.108 1372.91 364.756 1286.9 367.928L0 415.389V0.150826Z" fill="url(#paint0_linear)"/>
<mask id="mask0" mask-type="alpha" maskUnits="userSpaceOnUse" x="0" y="0" width="1441" height="416">
<path fill-rule="evenodd" clip-rule="evenodd" d="M0 0.150826L1441 0V208.037C1441 294.108 1372.91 364.756 1286.9 367.928L0 415.389V0.150826Z" fill="white"/>
</mask>
<g mask="url(#mask0)">
<ellipse cx="1385.43" cy="-40.7836" rx="629.5" ry="828.236" fill="url(#paint1_linear)"/>
<path fill-rule="evenodd" clip-rule="evenodd" d="M694.269 799.311L0.731499 821.056L-0.0732422 0.0597033L114.982 -0.21875L694.269 799.311Z" fill="url(#paint2_linear)"/>
</g>
<defs>
<linearGradient id="paint0_linear" x1="873.121" y1="37.5016" x2="638.788" y2="548.149" gradientUnits="userSpaceOnUse">
<stop stop-color="#EAF2F0"/>
<stop offset="1" stop-color="#F0FAFF"/>
</linearGradient>
<linearGradient id="paint1_linear" x1="380.835" y1="-877.884" x2="1833.92" y2="530.493" gradientUnits="userSpaceOnUse">
<stop stop-color="#D5EDE5"/>
<stop offset="1" stop-color="#F8FAFD"/>
</linearGradient>
<linearGradient id="paint2_linear" x1="6.43243" y1="-0.21875" x2="6.43243" y2="805.666" gradientUnits="userSpaceOnUse">
<stop stop-color="#DEF3FC" stop-opacity="0.511364"/>
<stop offset="1" stop-color="#F2FBFF" stop-opacity="0.132594"/>
</linearGradient>
</defs>
</svg>
