<svg width="14" height="10" viewBox="0 0 14 10" fill="none" xmlns="http://www.w3.org/2000/svg">
<path d="M6.39292 8.9375C6.67417 9.21875 7.14292 9.21875 7.42417 8.9375L13.5179 2.875C13.7992 2.5625 13.7992 2.09375 13.5179 1.8125L12.7992 1.09375C12.5179 0.8125 12.0492 0.8125 11.7367 1.09375L6.92417 5.90625L2.08042 1.09375C1.76792 0.8125 1.29917 0.8125 1.01792 1.09375L0.299172 1.8125C0.0179224 2.09375 0.0179224 2.5625 0.299172 2.875L6.39292 8.9375Z" fill="#183B56"/>
</svg>
